<svg xmlns="http://www.w3.org/2000/svg" xmlns:xlink="http://www.w3.org/1999/xlink" width="99" height="99" viewBox="0 0 99 99">
  <defs>
    <filter id="Oval" x="0" y="0" width="99" height="99" filterUnits="userSpaceOnUse">
      <feOffset input="SourceAlpha"/>
      <feGaussianBlur stdDeviation="1.5" result="blur"/>
      <feFlood flood-opacity="0.149"/>
      <feComposite operator="in" in2="blur"/>
      <feComposite in="SourceGraphic"/>
    </filter>
  </defs>
  <g id="microsoft" transform="translate(-19.5 -30.5)">
    <g id="circle_google" data-name="circle/google">
      <g transform="matrix(1, 0, 0, 1, 19.5, 30.5)" filter="url(#Oval)">
        <circle id="Oval-2" data-name="Oval" cx="45" cy="45" r="45" transform="translate(4.5 4.5)" fill="#fff"/>
      </g>
      <g id="Microsoft_logo" transform="translate(738 151.428)">
        <rect id="Rectangle_3" data-name="Rectangle 3" width="44" height="44" transform="translate(-691 -93.428)" fill="#f3f3f3"/>
        <rect id="Rectangle_4" data-name="Rectangle 4" width="19" height="20" transform="translate(-689 -91.428)" fill="#f35325"/>
        <rect id="Rectangle_5" data-name="Rectangle 5" width="20" height="20" transform="translate(-669 -91.428)" fill="#81bc06"/>
        <rect id="Rectangle_6" data-name="Rectangle 6" width="19" height="19" transform="translate(-689 -70.428)" fill="#05a6f0"/>
        <rect id="Rectangle_7" data-name="Rectangle 7" width="20" height="19" transform="translate(-669 -70.428)" fill="#ffba08"/>
      </g>
    </g>
  </g>
</svg>
